…
julia> m = map(x -> (t = x.k + x.v, v = x.v), d)
DTable with 10 partitions
Tabletype: NamedTuple

julia> f = filter(x -> x.t == 'd', m)
DTable with 10 partitions
Tabletype: NamedTuple

julia> using DataFrames; fetch(f, DataFrame)

julia> fetch(f, DataFrame)
200×2 DataFrame
 Row │ t     v     
     │ Char  Int64 
─────┼─────────────
   1 │ d         2
   2 │ d         3
  ⋮  │  ⋮      ⋮
 200 │ d         3
   197 rows omitted
…
