Distributed Table · Dagger.jl
…
julia> using Dagger

julia> d = DTable((k = repeat(['a', 'b'], 500), v = repeat(1:10, 100)), 100)
DTable with 10 partitions
Tabletype: NamedTuple

julia> using DataFrames

julia> m = map(x -> (t = x.k + x.v, v = x.v), d)
DTable with 10 partitions
Tabletype: NamedTuple

julia> fetch(m, DataFrame)
1000×2 DataFrame
  Row │ t     v
      │ Char  Int64
──────┼─────────────
    1 │ b         1
    2 │ d         2
    3 │ d         3
  ⋮   │  ⋮      ⋮
  999 │ j         9
 1000 │ l        10
    995 rows omitted

julia> f = filter(x -> x.t == 'd', m)
DTable with 10 partitions
Tabletype: NamedTuple

julia> fetch(f, DataFrame)
200×2 DataFrame
 Row │ t     v
     │ Char  Int64
─────┼─────────────
   1 │ d         2
   2 │ d         3
  ⋮  │  ⋮      ⋮
 200 │ d         3
   197 rows omitted
…
